Verilog_V1/memTest.vcd
$date
	Thu May  9 11:37:00 2024
$end
$version
	Icarus Verilog
$end
$timescale
	1ps
$end
$scope module testbench $end
$var wire 1 ! rdy $end
$var wire 16 " outputData [15:0] $end
$var reg 1 # clk $end
$var reg 16 $ inputData [15:0] $end
$var reg 8 % mem_addr [7:0] $end
$var reg 1 & rst $end
$var reg 2 ' rw [1:0] $end
$scope module mem_inst $end
$var wire 8 ( Mem_ADDR [7:0] $end
$var wire 1 # Mem_CLK $end
$var wire 16 ) Mem_IDR [15:0] $end
$var wire 1 & Mem_RST $end
$var wire 2 * Mem_RW [1:0] $end
$var reg 1 ! Mem_DRDY $end
$var reg 16 + Mem_ODR [15:0] $end
$var integer 32 , iter [31:0] $end
$upscope $end
$upscope $end
$enddefinitions $end
#0
$dumpvars
bx ,
bx +
b0 *
bx )
b0 (
b0 '
0&
b0 %
bx $
0#
bx "
0!
$end
#1000
1#
#2000
0#
#3000
1#
#4000
0#
1&
#5000
b0 "
b0 +
b110001 ,
1#
#6000
0#
b11 '
b11 *
0&
#7000
1!
1#
#8000
b10 '
b10 *
0!
0#
#9000
1!
b1101111111100001 "
b1101111111100001 +
1#
#10000
b1 %
b1 (
0!
0#
#11000
1!
b10001111101101 "
b10001111101101 +
1#
#12000
b10 %
b10 (
0!
0#
#13000
1!
b1110110111101111 "
b1110110111101111 +
1#
#14000
b11 %
b11 (
0!
0#
#15000
1!
b1110111011011111 "
b1110111011011111 +
1#
#16000
b100 %
b100 (
0!
0#
#17000
1!
b1110111000100011 "
b1110111000100011 +
1#
#18000
b101 %
b101 (
0!
0#
#19000
1!
b11111011011110 "
b11111011011110 +
1#
#20000
b110 %
b110 (
0!
0#
#21000
1!
b11111011100011 "
b11111011100011 +
1#
#22000
b111 %
b111 (
0!
0#
#23000
1!
b11010001011111 "
b11010001011111 +
1#
#24000
b1000 %
b1000 (
0!
0#
#25000
1!
b1111001101000010 "
b1111001101000010 +
1#
#26000
b1001 %
b1001 (
0!
0#
#27000
1!
b10111111100011 "
b10111111100011 +
1#
#28000
b1010 %
b1010 (
0!
0#
#29000
1!
b1000111101010 "
b1000111101010 +
1#
#30000
b1011 %
b1011 (
0!
0#
#31000
1!
b1010101111000011 "
b1010101111000011 +
1#
#32000
b1100 %
b1100 (
0!
0#
#33000
1!
b1100001101000010 "
b1100001101000010 +
1#
#34000
b1101 %
b1101 (
0!
0#
#35000
1!
b1100110111100001 "
b1100110111100001 +
1#
#36000
b1110 %
b1110 (
0!
0#
#37000
1!
b1111111010100011 "
b1111111010100011 +
1#
#38000
b1111 %
b1111 (
0!
0#
#39000
1!
b100101111 "
b100101111 +
1#
#40000
b10000 %
b10000 (
0!
0#
#41000
1!
b10001111110010 "
b10001111110010 +
1#
#42000
b10001 %
b10001 (
0!
0#
#43000
1!
b1010110000100011 "
b1010110000100011 +
1#
#44000
b10010 %
b10010 (
0!
0#
#45000
1!
b100010111001101 "
b100010111001101 +
1#
#46000
b10011 %
b10011 (
0!
0#
#47000
1!
b1101110101000011 "
b1101110101000011 +
1#
#48000
b10100 %
b10100 (
0!
0#
#49000
1!
b1110110100100011 "
b1110110100100011 +
1#
#50000
b10101 %
b10101 (
0!
0#
#51000
1!
b1101111001000101 "
b1101111001000101 +
1#
#52000
b10110 %
b10110 (
0!
0#
#53000
1!
b10001111101110 "
b10001111101110 +
1#
#54000
b10111 %
b10111 (
0!
0#
#55000
1!
b10001111011110 "
b10001111011110 +
1#
#56000
b11000 %
b11000 (
0!
0#
#57000
1!
b1110111111111110 "
b1110111111111110 +
1#
#58000
b11001 %
b11001 (
0!
0#
#59000
1!
b1001000100011 "
b1001000100011 +
1#
#60000
b11010 %
b11010 (
0!
0#
#61000
1!
b11010001000010 "
b11010001000010 +
1#
#62000
b11011 %
b11011 (
0!
0#
#63000
1!
b10001111111110 "
b10001111111110 +
1#
#64000
b11100 %
b11100 (
0!
0#
#65000
1!
b10001111101111 "
b10001111101111 +
1#
#66000
b11101 %
b11101 (
0!
0#
#67000
1!
b10111111100011 "
b10111111100011 +
1#
#68000
b11110 %
b11110 (
0!
0#
#69000
1!
b101011011110011 "
b101011011110011 +
1#
#70000
b11111 %
b11111 (
0!
0#
#71000
1!
b1111111111100010 "
b1111111111100010 +
1#
#72000
b100000 %
b100000 (
0!
0#
#73000
1!
b1111111010101101 "
b1111111010101101 +
1#
#74000
b100001 %
b100001 (
0!
0#
#75000
1!
b1101111010101101 "
b1101111010101101 +
1#
#76000
b100010 %
b100010 (
0!
0#
#77000
1!
b1101110111101111 "
b1101110111101111 +
1#
#78000
b100011 %
b100011 (
0!
0#
#79000
1!
b1111111111101101 "
b1111111111101101 +
1#
#80000
b100100 %
b100100 (
0!
0#
#81000
1!
b1101110111101111 "
b1101110111101111 +
1#
#82000
b100101 %
b100101 (
0!
0#
#83000
1!
b1100101111001101 "
b1100101111001101 +
1#
#84000
b100110 %
b100110 (
0!
0#
#85000
1!
b1101110011011101 "
b1101110011011101 +
1#
#86000
b100111 %
b100111 (
0!
0#
#87000
1!
b1010110111101101 "
b1010110111101101 +
1#
#88000
b101000 %
b101000 (
0!
0#
#89000
1!
b1010101011000011 "
b1010101011000011 +
1#
#90000
b101001 %
b101001 (
0!
0#
#91000
1!
b10001111011100 "
b10001111011100 +
1#
#92000
b101010 %
b101010 (
0!
0#
#93000
1!
b100010001010100 "
b100010001010100 +
1#
#94000
b101011 %
b101011 (
0!
0#
#95000
1!
b100101111111 "
b100101111111 +
1#
#96000
b101100 %
b101100 (
0!
0#
#97000
1!
b1110111001000011 "
b1110111001000011 +
1#
#98000
b101101 %
b101101 (
0!
0#
#99000
1!
b11111011111110 "
b11111011111110 +
1#
#100000
b101110 %
b101110 (
0!
0#
#101000
1!
b1110111011111110 "
b1110111011111110 +
1#
#102000
b101111 %
b101111 (
0!
0#
#103000
1!
b10111000101110 "
b10111000101110 +
1#
#104000
b110000 %
b110000 (
0!
0#
#105000
1!
b1110111011011111 "
b1110111011011111 +
1#
#106000
b110001 %
b110001 (
0!
0#
